<?xml version="1.0" encoding="UTF-8"?>
<svg width="710px" height="483px" viewBox="0 0 710 483" version="1.1" xmlns="http://www.w3.org/2000/svg" xmlns:xlink="http://www.w3.org/1999/xlink">
    <!-- Generator: sketchtool 50.2 (55047) - http://www.bohemiancoding.com/sketch -->
    <title>EA9526BD-64D3-4C98-AAA2-9CB767CB2130</title>
    <desc>Created with sketchtool.</desc>
    <defs>
        <polygon id="path-1" points="0.434686769 1.31442227 246.099534 1.31442227 246.099534 332.017786 0.434686769 332.017786"></polygon>
    </defs>
    <g id="Page-1" stroke="none" stroke-width="1" fill="none" fill-rule="evenodd">
        <g id="Venture-exchange" transform="translate(-670.000000, -332.000000)">
            <g id="Bitmap">
                <g id="Group" transform="translate(670.000000, 331.000000)">
                    <g id="Group-3" transform="translate(494.958275, 0.005279)">
                        <mask id="mask-2" fill="white">
                            <use xlink:href="#path-1"></use>
                        </mask>
                        <g id="Clip-2"></g>
                        <path d="M138.15249,3.95329653 C133.87605,4.0324786 129.995577,6.28916743 127.797963,9.98828953 L4.80281113,217.132529 C2.51544395,220.980777 2.49696551,225.773932 4.75397524,229.641975 L59.3709711,323.26025 C61.565946,327.020078 65.6338431,329.363867 69.9855163,329.378384 C74.3649071,329.378384 78.4314843,327.059669 80.640978,323.327554 L238.725372,56.2847228 C245.101754,45.0435091 245.02784,31.6696584 238.526068,20.5049874 C232.408384,10.0014865 221.028303,3.97441175 207.302781,3.97045265 L207.06652,3.97309205 L138.15249,3.95329653 Z M70.0264328,332.017786 C64.6927624,332.00063 59.7550587,329.154035 57.0915232,324.589189 L2.47188762,230.972234 C-0.265561613,226.276738 -0.243123505,220.456856 2.5326025,215.785114 L125.529074,8.64087474 C128.195249,4.14993199 132.904612,1.41155227 138.127412,1.31389439 L207.045402,1.3336899 L207.302781,1.3310505 C221.994462,1.33632931 234.204753,7.83981619 240.806836,19.1786878 C247.786408,31.1628932 247.866921,45.5199212 241.024618,57.581989 L240.887349,57.8195352 L82.9111866,324.67233 C80.2291727,329.202864 75.2927889,332.017786 70.0264328,332.017786 Z" id="Fill-1" fill="#236ADB" mask="url(#mask-2)"></path>
                    </g>
                    <path d="M497.476755,2.27476874 L497.394922,2.27476874 C471.341638,2.3460326 439.536279,2.41465705 413.661181,2.41729645 C392.310661,2.41861615 379.02598,25.5846488 389.805512,44.0103151 C416.048859,88.8748728 453.969263,153.698589 453.969263,153.698589 L521.032809,44.3679541 C532.332377,25.9449272 519.070135,2.27476874 497.476755,2.27476874 M497.476755,4.91417088 C506.649982,4.91417088 514.804254,9.69544787 519.286597,17.7020743 C523.770259,25.7100204 523.581514,35.1630392 518.782399,42.9888665 L454.022058,148.563633 L392.08232,42.6774171 C387.504946,34.85027 387.464029,25.4803924 391.975409,17.6162937 C396.485469,9.75219501 404.593545,5.0566986 413.661181,5.0566986 C435.288877,5.0553789 463.463222,5.00786966 497.402841,4.91417088 L497.476755,4.91417088" id="Fill-4" fill="#DF1F26"></path>
                    <path d="M280.637382,2.66856754 L208.865793,2.66856754 C195.453083,2.66856754 183.422298,9.59171936 176.681626,21.186613 C169.943594,32.7815066 169.884199,46.6608028 176.524559,58.3137632 L383.656018,420.82641 L383.710134,420.82641 C378.88858,412.549245 378.280111,401.833272 384.024267,392.466034 L451.060096,283.180268 L292.451707,9.47690537 C290.009912,5.26309985 285.507772,2.66856754 280.637382,2.66856754 M280.637382,5.30796968 C284.552172,5.30796968 288.204305,7.41289289 290.168299,10.8005655 L447.987395,283.141997 L381.773857,391.086946 C379.205353,395.275677 377.725758,399.833925 377.34035,404.451559 L178.817206,57.0059395 C172.649366,46.1804316 172.703481,33.2856324 178.965033,22.5129126 C185.225266,11.7401927 196.404723,5.30796968 208.865793,5.30796968 L280.637382,5.30796968" id="Fill-6" fill="#8ECB88"></path>
                    <path d="M449.598583,285.91007 L383.924879,392.974779 C379.871501,399.583842 378.922501,407.247346 381.252105,414.553211 C383.598867,421.914503 388.948376,427.84524 395.927948,430.823805 C399.172234,432.208172 402.652781,432.910253 406.271916,432.910253 L406.348469,432.910253 C440.212854,432.817874 468.285568,432.769045 489.790515,432.767725 C499.301633,432.767725 507.805676,427.842601 512.537477,419.594469 C517.269279,411.345017 517.225722,401.518523 512.423967,393.308663 L449.598583,285.91007 Z M406.271916,435.549655 C402.293771,435.549655 398.466094,434.77631 394.891835,433.250736 C387.206123,429.971278 381.318099,423.447996 378.736397,415.354269 C376.170533,407.306732 377.213245,398.868564 381.674469,391.595691 L449.626301,280.818663 L450.765365,282.675483 L514.702095,391.975765 C519.988249,401.013078 520.034445,411.828028 514.826165,420.907571 C509.619203,429.985795 500.259872,435.407127 489.790515,435.407127 C468.288208,435.408447 440.218134,435.457276 406.356388,435.549655 L406.271916,435.549655 Z" id="Fill-8" fill="#10A304"></path>
                    <path d="M282.234448,171.749461 C279.805853,171.794331 277.593719,173.079719 276.343784,175.188602 L201.128605,301.862749 C199.824555,304.057411 199.815316,306.789193 201.099567,308.993093 L234.500672,366.241726 C235.749287,368.38492 238.068331,369.721778 240.549722,369.729696 C243.045631,369.729696 245.362036,368.408675 246.62385,366.279997 L343.29514,202.980187 C347.10038,196.272146 347.052864,188.283995 343.171071,181.618185 L343.171071,181.616866 C339.525538,175.354884 332.728111,171.762658 324.521043,171.760018 L324.363976,171.761338 L282.234448,171.749461 Z M240.57348,372.369098 C237.12725,372.35854 233.939719,370.520197 232.218584,367.571985 L198.82012,310.322032 C197.051469,307.291999 197.065987,303.53349 198.857076,300.515334 L274.072256,173.841187 C275.794711,170.941804 278.837054,169.172085 282.20937,169.110059 L324.363976,169.121936 L324.521043,169.120616 C333.69163,169.123256 341.321907,173.194533 345.451839,180.289246 C349.812751,187.77723 349.864227,196.747238 345.589107,204.285371 L345.501994,204.437137 L248.894058,367.624773 C247.162364,370.55187 243.973513,372.369098 240.57348,372.369098 Z" id="Fill-10" fill="#236ADB"></path>
                    <path d="M199.290264,170.20739 L199.241428,170.20739 C183.309051,170.25094 163.857851,170.293171 148.035025,170.29449 C134.978685,170.29449 126.85477,184.461481 133.446295,195.729089 C149.494822,223.164355 172.685267,262.806855 172.685267,262.806855 L213.69553,195.948159 C220.605147,184.681871 212.495751,170.20739 199.290264,170.20739 M199.290264,170.20739 L199.290264,172.846792 C204.523623,172.846792 209.174911,175.573295 211.732855,180.1421 C214.290799,184.710905 214.182569,190.104523 211.445119,194.567752 L172.738062,257.670579 L135.725742,194.397511 C133.112363,189.930323 133.089925,184.585533 135.663708,180.09855 C138.236171,175.612886 142.862381,172.933892 148.035025,172.933892 C161.266909,172.932573 178.498057,172.903539 199.250667,172.846792 L199.290264,170.20739" id="Fill-12" fill="#DF1F26"></path>
                    <path d="M66.6877743,170.447708 L22.7975142,170.447708 C14.5944057,170.447708 7.2373459,174.681309 3.11665327,181.772062 C-1.00403936,188.862816 -1.03967636,197.351134 3.02030139,204.4762 L129.686064,426.162225 L129.719061,426.162225 C126.770429,421.099852 126.398221,414.546216 129.910445,408.818714 L170.906189,341.986412 L73.9128452,174.611364 C72.420051,172.033988 69.6667631,170.447708 66.6877743,170.447708 M66.6877743,173.08711 C68.7177631,173.08711 70.6118035,174.178503 71.6281178,175.935025 L167.832168,341.94946 L127.661354,407.438306 C126.551328,409.247617 125.756755,411.162503 125.278955,413.126218 L5.31426801,203.168376 C1.72417065,196.869443 1.75584798,189.366942 5.39874089,183.098362 C9.0416338,176.829782 15.5460455,173.08711 22.7975142,173.08711 L66.6877743,173.08711" id="Fill-14" fill="#8ECB88"></path>
                    <path d="M169.407059,344.621855 L130.542935,407.983343 C128.196173,411.806517 127.64578,416.240713 128.994706,420.466395 C130.352871,424.72771 133.44801,428.160253 137.48555,429.883782 C139.362432,430.684841 141.377902,431.089989 143.473885,431.089989 L143.517442,431.089989 C159.064411,431.047759 178.045731,431.006848 193.487109,431.005528 C198.991045,431.005528 203.91159,428.156294 206.64904,423.382935 C209.386489,418.609576 209.361411,412.922984 206.583045,408.17206 L169.407059,344.621855 Z M143.473885,433.729391 C141.018892,433.729391 138.656291,433.252979 136.449437,432.312032 C131.705757,430.286291 128.072104,426.261203 126.478998,421.268774 C124.893812,416.298779 125.539237,411.091239 128.292525,406.602936 L169.445336,339.511973 L170.573841,341.387268 L208.862493,406.840482 C212.123938,412.417539 212.152976,419.092587 208.937727,424.696037 C205.725118,430.299488 199.949284,433.64493 193.487109,433.64493 C178.048371,433.64625 159.069691,433.687161 143.525361,433.729391 L143.473885,433.729391 Z" id="Fill-16" fill="#10A304"></path>
                    <path d="M454.206579,103.01547 C448.888747,103.114447 444.068513,105.916173 441.340303,110.511372 L291.448459,362.947752 C288.610698,367.729029 288.58826,373.68352 291.391704,378.485912 L357.951053,492.57275 C360.675303,497.243173 365.727837,500.154433 371.135422,500.171589 C376.572043,500.171589 381.623257,497.292001 384.368626,492.657211 L577.028825,167.208369 C584.845206,153.43069 584.750174,137.025486 576.775406,123.332268 L576.775406,123.330948 C569.269199,110.438788 555.308736,103.041864 538.476195,103.036585 L538.187139,103.040544 L454.206579,103.01547 Z M371.184257,502.810991 C364.786757,502.791196 358.865736,499.377129 355.670285,493.903009 L289.110936,379.816171 C285.825733,374.186326 285.852131,367.206427 289.17957,361.600337 L439.070095,109.163957 C442.269505,103.776937 447.918629,100.492201 454.181501,100.376068 L538.162061,100.401142 L538.476195,100.397183 C556.273575,100.402462 571.064248,108.277118 579.057494,122.003329 C587.510061,136.518721 587.609053,153.907102 579.321472,168.517513 L579.157805,168.798609 L386.640155,494.000667 C383.422266,499.435196 377.499925,502.810991 371.184257,502.810991 Z" id="Fill-18" fill="#236ADB"></path>
                    <path d="M255.922994,408.479155 L175.349066,539.83824 C170.345368,547.993993 169.173307,557.45229 172.049344,566.469808 C174.94518,575.55463 181.547264,582.872372 190.163497,586.54906 C194.16672,588.259392 198.461638,589.125116 202.928141,589.125116 L203.024493,589.125116 C244.414884,589.011622 278.74915,588.952235 305.070371,588.950916 C316.809461,588.950916 327.303897,582.872372 333.144404,572.693518 C338.984912,562.512024 338.932116,550.383971 333.003176,540.249987 L255.922994,408.479155 Z M202.928141,591.764518 C198.102628,591.764518 193.460579,590.826211 189.127385,588.97731 C179.805011,584.999731 172.664413,577.088123 169.533636,567.272186 C166.421339,557.511677 167.687112,547.278715 173.098656,538.457833 L255.944112,403.396986 L257.089776,405.245887 L335.282624,538.917089 C341.693324,549.877206 341.750079,562.993715 335.433091,574.006621 C329.117424,585.016887 317.766381,591.590318 305.070371,591.590318 C278.751789,591.591637 244.420164,591.651024 203.032413,591.764518 L202.928141,591.764518 Z" id="Fill-20" fill="#10A304"></path>
                    <path d="M742.465659,166.160659 C733.809828,166.321662 725.984208,170.873311 721.553342,178.336221 L485.495201,575.88957 C480.88219,583.656011 480.845233,593.3281 485.396209,601.130173 L590.220453,780.800875 C594.64604,788.387837 602.853108,793.117645 611.636967,793.145359 C620.467023,793.145359 628.674091,788.468339 633.132675,780.938124 L936.316397,268.79777 L936.548698,268.397901 C948.996568,246.453911 948.848741,220.335707 936.151411,198.531606 C924.18926,177.989139 901.964973,166.201569 875.179151,166.193651 L874.710591,166.19893 L742.465659,166.160659 Z M611.716161,795.784761 C601.913347,795.754408 592.836472,790.521793 587.941005,782.131134 L483.116762,602.459112 C478.082706,593.830906 478.124942,583.133409 483.223673,574.542155 L719.284453,176.988806 C724.18388,168.734076 732.84103,163.699416 742.440581,163.521256 L874.685513,163.559528 L875.179151,163.554249 C902.929812,163.563487 925.984308,175.827469 938.433499,197.203987 C951.607308,219.828942 951.760415,246.930323 938.843984,269.701765 L938.586606,270.145185 L635.404204,782.28158 C630.47178,790.611533 621.394905,795.784761 611.716161,795.784761 Z" id="Fill-22" fill="#236ADB"></path>
                </g>
            </g>
        </g>
    </g>
</svg>