<?xml version="1.0" encoding="UTF-8" standalone="no"?>
<svg width="231px" height="419px" viewBox="0 0 231 419" version="1.1" xmlns="http://www.w3.org/2000/svg" xmlns:xlink="http://www.w3.org/1999/xlink">
    <!-- Generator: sketchtool 46.2 (44496) - http://www.bohemiancoding.com/sketch -->
    <title>7805EFC1-EC52-4022-A677-E16768346C3E</title>
    <desc>Created with sketchtool.</desc>
    <defs></defs>
    <g id="Page-1" stroke="none" stroke-width="1" fill="none" fill-rule="evenodd" opacity="0.100000001">
        <g id="Venture-exchange" transform="translate(0.000000, -5271.000000)" fill="#5CB3B5">
            <path d="M214.37255,5570.3333 L167.998242,5591.22565 C166.833101,5591.74932 165.501811,5591.74932 164.338773,5591.22565 L117.966569,5570.3333 C114.466939,5568.75596 114.466939,5563.7884 117.964466,5562.21317 L164.338773,5541.32082 C165.501811,5540.79714 166.835204,5540.79714 167.998242,5541.32082 L214.37255,5562.21317 C217.87218,5563.7884 217.87218,5568.75596 214.37255,5570.3333 L214.37255,5570.3333 Z M104.811408,5543.07061 L104.811408,5543.04958 L104.811408,5499.43517 L104.811408,5499.42465 L104.811408,5470.92954 C104.811408,5466.30899 107.900926,5462.11748 112.113521,5460.22047 L155.539222,5440.74352 C159.278611,5439.05892 163.699418,5441.79297 163.699418,5445.89615 L163.699418,5528.79676 C163.699418,5533.78535 160.778152,5538.30916 156.229053,5540.35969 L111.94527,5560.1395 C108.777936,5561.56751 104.811408,5559.24778 104.811408,5555.77343 L104.811408,5543.07061 Z M43.8202556,5578.7752 L43.8202556,5576.16103 C43.8202556,5573.96328 44.4364765,5571.96742 46.440772,5571.06518 L100.605122,5546.36199 L100.605122,5594.66214 L100.99841,5594.66214 C100.99841,5594.66214 101.181383,5600.25643 101.17928,5609.25987 L46.7120775,5584.07926 C44.7182977,5583.17072 43.8202556,5580.96665 43.8202556,5578.7752 L43.8202556,5578.7752 Z M89.5846515,5615.85734 L43.2524069,5636.94318 C42.1335347,5637.45423 40.8485142,5637.45634 39.7275389,5636.95159 L-7.07791291,5615.86365 C-10.4345294,5614.35361 -10.4345294,5609.59005 -7.07791291,5608.07791 L39.7275389,5586.99208 C40.8485142,5586.48733 42.1335347,5586.48943 43.2524069,5586.99839 L89.5846515,5608.08633 C92.9181335,5609.60267 92.9181335,5614.34099 89.5846515,5615.85734 L89.5846515,5615.85734 Z M-19.2740403,5580.55023 L-19.2740403,5580.54603 L-19.2740403,5580.54392 L-19.2740403,5551.96889 C-19.2740403,5549.34 -16.4726536,5547.5839 -14.0729672,5548.6649 L35.73367,5570.95161 C37.8914949,5571.92325 39.6139692,5574.07053 39.6139692,5576.43654 L39.6139692,5578.80465 C39.6139692,5581.17065 37.9356609,5583.31793 35.777836,5584.28957 L-14.2769721,5606.77398 C-16.4831693,5607.76665 -19.1394391,5606.14936 -19.1352329,5603.73077 C-19.122614,5590.02056 -19.2740403,5580.55023 -19.2740403,5580.55023 L-19.2740403,5580.55023 Z M-82.3683362,5505.36175 L-82.3683362,5494.95763 C-82.3683362,5492.88396 -80.6837185,5491.01429 -78.797199,5490.15201 C-78.7845802,5490.14781 -78.5385124,5490.1415 -78.5279967,5490.13519 C-75.9264086,5488.95534 -72.4183657,5487.22027 -69.0806775,5485.36322 C-65.7240609,5483.54402 -62.375857,5481.58182 -59.9046637,5480.12015 C-57.4523987,5478.61222 -55.811947,5477.55645 -55.811947,5477.55645 C-55.811947,5477.55645 -57.6564036,5478.0612 -60.4094181,5478.89824 C-63.1435042,5479.78365 -66.7861482,5480.94668 -70.3720074,5482.25692 C-72.4099531,5482.97408 -74.4268675,5483.7312 -76.2692209,5484.46309 C-76.4984635,5484.55562 -77.2387699,5484.66919 -77.5500351,5484.79958 C-79.619528,5485.66186 -82.3683362,5484.14341 -82.3683362,5481.90149 L-82.3683362,5477.02647 C-82.3683362,5474.4859 -80.4166193,5472.18089 -78.1010586,5471.13564 L-75.3396316,5469.99575 C-70.777914,5467.98307 -64.6556642,5465.13335 -58.5207955,5462.56755 C-55.443897,5461.30778 -52.3669985,5459.91973 -49.643428,5458.37814 C-46.8946199,5456.89124 -44.3203726,5455.46112 -42.1793728,5454.14457 C-40.0215479,5452.86588 -38.2254636,5451.76174 -37.0014343,5450.94152 C-35.762683,5450.15286 -35.0686457,5449.65231 -35.0686457,5449.65231 C-35.0686457,5449.65231 -35.895181,5449.83318 -37.3063901,5450.23908 C-38.7344243,5450.61134 -40.7387198,5451.21283 -43.1278904,5451.98257 C-45.5317831,5452.71445 -48.2869007,5453.67347 -51.2228886,5454.74606 C-54.1799079,5455.76607 -57.221053,5457.10786 -60.20331,5458.57794 C-66.1888556,5461.47182 -72.304796,5464.08179 -76.8328633,5466.16388 L-77.3502365,5466.18701 C-79.48703,5467.15024 -82.3683362,5465.58762 -82.3683362,5463.24265 L-82.3683362,5394.67267 C-82.3683362,5389.67777 -78.9780693,5385.14765 -74.4247643,5383.09712 L-31.7351637,5363.92932 C-27.9305777,5362.21528 -23.4803267,5364.99981 -23.4803267,5369.17239 L-23.4803267,5531.00293 C-23.4803267,5535.15659 -27.6782005,5537.92639 -31.4659614,5536.22076 L-74.3784952,5517.0782 C-78.9864819,5515.00243 -82.3683362,5510.41764 -82.3683362,5505.36175 L-82.3683362,5505.36175 Z M-35.8173647,5547.382 L-81.6196172,5568.01566 C-82.8436465,5568.56668 -84.246443,5568.56668 -85.4704724,5568.01566 L-131.274828,5547.382 C-134.959535,5545.72264 -134.959535,5540.49429 -131.274828,5538.83283 L-85.4704724,5518.19916 C-84.246443,5517.64815 -82.8436465,5517.64815 -81.6196172,5518.19916 L-35.8173647,5538.83283 C-32.1326578,5540.49429 -32.1326578,5545.72264 -35.8173647,5547.382 L-35.8173647,5547.382 Z M-99.7760524,5607.40281 L-143.618175,5627.15317 C-145.052519,5627.80093 -146.695074,5627.80093 -148.129418,5627.15317 L-191.971541,5607.40281 C-196.289294,5605.45743 -196.289294,5599.32895 -191.971541,5597.38567 L-148.129418,5577.63532 C-146.695074,5576.98756 -145.052519,5576.98756 -143.618175,5577.63532 L-99.7760524,5597.38567 C-95.4604026,5599.32895 -95.4604026,5605.45743 -99.7760524,5607.40281 L-99.7760524,5607.40281 Z M-191.376351,5428.80203 L-153.240056,5411.71631 C-150.676324,5410.5617 -147.565775,5412.43558 -147.565775,5415.24745 L-147.565775,5452.91845 C-147.565775,5455.72822 -150.676324,5457.6042 -153.240056,5456.44958 L-191.271194,5439.36387 C-195.822396,5437.31334 -195.927553,5430.85256 -191.376351,5428.80203 L-191.376351,5428.80203 Z M50.9604267,5519.38111 L94.8067561,5499.391 C97.7742911,5498.05342 100.605122,5500.22594 100.605122,5503.47946 L100.605122,5533.60028 C100.605122,5538.56153 98.0792469,5543.06009 93.5553859,5545.09591 L49.8731017,5564.99138 C46.8088221,5566.37313 43.8202556,5564.13121 43.8202556,5560.76833 L43.8202556,5530.87674 C43.8202556,5525.9176 46.4365657,5521.41903 50.9604267,5519.38111 L50.9604267,5519.38111 Z M-11.8036757,5499.86841 L31.8470614,5519.38111 C36.3709224,5521.41903 39.6139692,5525.9176 39.6139692,5530.87674 L39.6139692,5567.93575 L-11.4650696,5545.09591 C-15.9868275,5543.05799 -19.2740403,5538.55943 -19.2740403,5533.60028 L-19.2740403,5504.63827 C-19.2740403,5500.84005 -15.2654494,5498.30579 -11.8036757,5499.86841 L-11.8036757,5499.86841 Z M43.018958,5518.21389 C41.8222695,5518.75439 40.448917,5518.75439 39.2501254,5518.21389 L-6.79609172,5497.46875 C-10.4008792,5495.84725 -10.4008792,5490.72827 -6.79609172,5489.10466 L39.2501254,5468.36163 C40.448917,5467.82113 41.8222695,5467.82113 43.018958,5468.36163 L89.0672783,5489.10466 C92.6720657,5490.72827 92.6720657,5495.84725 89.0672783,5497.46875 L43.018958,5518.21389 Z M33.9796486,5328.21631 C37.2311079,5329.68218 39.6139692,5332.91888 39.6139692,5336.48576 L39.6139692,5432.88838 C39.6139692,5432.99774 39.6581352,5433.08818 39.6749603,5433.19333 C39.6223818,5433.41626 39.6139692,5433.6476 39.6139692,5433.88946 L39.6139692,5433.89788 C39.6139692,5433.90208 39.3258386,5433.90839 39.3258386,5433.9126 L41.2817617,5452.33379 L42.9579669,5436.99366 L94.1022031,5460.22047 C98.3147989,5462.11748 100.605122,5466.30899 100.605122,5470.92954 L100.605122,5490.03424 L41.6161615,5463.28892 C41.0672411,5463.03865 40.5414553,5463.03865 39.992535,5463.28892 L-19.2740403,5490.03424 L-19.2740403,5308.90551 C-19.2740403,5306.8087 -16.8785602,5305.41223 -14.966803,5306.2724 L33.9796486,5328.21631 Z M94.1190282,5407.55215 L50.8805073,5427.24572 C47.3430204,5428.83988 43.8202556,5426.25305 43.8202556,5422.3728 L43.8202556,5336.48576 C43.8202556,5332.91888 45.6205461,5329.68218 48.8720055,5328.21631 L92.8319046,5308.17783 C96.7269258,5306.42383 100.605122,5309.27145 100.605122,5313.54077 L100.605122,5396.923 C100.605122,5401.50989 98.3000769,5405.66775 94.1190282,5407.55215 L94.1190282,5407.55215 Z M42.9705857,5276.23571 L89.694015,5297.28369 C93.0527346,5298.80003 93.0527346,5303.572 89.6919118,5305.08414 L42.8927694,5326.16788 C41.7760004,5326.67052 40.4951862,5326.67052 39.376314,5326.16788 L-7.42072525,5305.08414 C-10.7836512,5303.5699 -10.7815481,5298.79793 -7.42072525,5297.28158 L39.3784171,5276.20206 C40.4951862,5275.69731 41.7760004,5275.69731 42.8927694,5276.20206 L42.9705857,5276.23571 Z M-137.283508,5516.90785 L-92.6653253,5496.55179 C-89.5421576,5495.14481 -86.5746226,5497.42879 -86.5746226,5500.85477 L-86.5746226,5505.36175 C-86.5746226,5510.41764 -89.0752598,5515.00243 -93.6832466,5517.0782 L-137.144701,5536.8559 C-140.267868,5538.26078 -143.359489,5535.9768 -143.359489,5532.55293 L-143.359489,5526.63476 C-143.359489,5522.43904 -141.109126,5518.63241 -137.283508,5516.90785 L-137.283508,5516.90785 Z M-200.82998,5484.58717 C-203.387402,5485.73757 -206.453785,5483.8679 -206.453785,5481.06235 L-206.453785,5449.76799 L-206.453785,5449.72592 L-206.453785,5443.31563 C-206.453785,5440.51007 -203.391608,5438.6404 -200.832083,5439.79291 L-157.864867,5459.11213 C-155.210701,5460.3067 -155.254867,5464.07548 -157.909033,5465.27005 L-200.82998,5484.58717 Z M-143.359489,5453.27809 L-143.359489,5370.00522 C-143.359489,5365.44356 -138.862969,5362.40036 -134.705055,5364.27423 L-93.4876543,5383.09712 C-88.9343492,5385.14765 -86.5746226,5389.67987 -86.5746226,5394.67267 L-86.5746226,5471.53734 L-86.5746226,5471.54785 L-86.5746226,5480.94668 C-86.5746226,5483.80271 -89.0605378,5485.71023 -91.6663322,5484.53669 L-136.898633,5463.95981 C-141.100713,5462.06701 -143.359489,5457.88601 -143.359489,5453.27809 L-143.359489,5453.27809 Z M-143.958885,5515.20853 C-145.176605,5515.75534 -146.570989,5515.75534 -147.788708,5515.20853 L-193.660365,5494.54332 C-197.321937,5492.89448 -197.321937,5487.69557 -193.660365,5486.04673 L-147.788708,5465.38152 C-146.570989,5464.8326 -145.176605,5464.8326 -143.958885,5465.38152 L-98.0872284,5486.04673 C-94.4277593,5487.69557 -94.4277593,5492.89448 -98.0872284,5494.54332 L-143.958885,5515.20853 Z M-36.1917242,5361.46867 L-82.1243716,5382.16123 C-83.02662,5382.56713 -84.0613664,5382.56713 -84.965718,5382.16123 L-129.247398,5362.21318 L-133.748124,5360.18577 C-136.471695,5358.95966 -136.471695,5355.09413 -133.748124,5353.86591 L-84.9699243,5331.89256 C-84.0655727,5331.48455 -83.0287231,5331.48455 -82.1243716,5331.89256 L-33.3440683,5353.86591 C-30.6204978,5355.09413 -30.6204978,5358.95966 -33.3440683,5360.18577 L-36.1917242,5361.46867 Z M-86.5746226,5593.43392 C-86.5746226,5596.10908 -88.8733581,5597.89253 -91.310901,5596.7947 L-145.241802,5572.39435 C-145.790722,5572.14618 -146.305992,5572.14618 -146.85281,5572.39435 L-201.19172,5596.82204 C-203.606129,5597.90935 -206.453785,5596.14273 -206.453785,5593.49491 L-206.453785,5493.54854 L-154.236945,5516.89944 C-150.409225,5518.62399 -147.565775,5522.43063 -147.565775,5526.62635 L-147.565775,5543.10847 C-147.565775,5543.36505 -147.715098,5543.6069 -147.62887,5543.84035 C-147.603632,5543.90765 -147.677242,5543.96654 -147.645695,5544.03173 C-147.563672,5544.19788 -147.513197,5544.3472 -147.391214,5544.48601 C-147.349151,5544.53438 -147.338636,5544.58485 -147.292367,5544.62902 C-147.124115,5544.78885 -146.951657,5544.92766 -146.732931,5545.0244 L-146.697177,5545.04544 C-146.695074,5545.04544 -146.69928,5545.04544 -146.69928,5545.04544 L-93.3593625,5569.28174 C-88.9469681,5571.27129 -86.5746226,5575.66049 -86.5746226,5580.49976 L-86.5746226,5593.43392 Z M151.926022,5437.84542 L105.250965,5458.87237 C104.119474,5459.38133 102.823938,5459.38133 101.69455,5458.87237 L55.0173899,5437.84542 C51.6166074,5436.31225 51.6166074,5431.4835 55.0173899,5429.95033 L101.69455,5408.92338 C102.823938,5408.41442 104.119474,5408.41442 105.250965,5408.92338 L151.926022,5429.95033 C155.326805,5431.4835 155.326805,5436.31225 151.926022,5437.84542 L151.926022,5437.84542 Z M213.716369,5481.12544 C217.47048,5482.81845 217.47048,5488.14774 213.716369,5489.83865 L174.511677,5507.49851 C171.41585,5508.89288 167.905704,5506.62782 167.905704,5503.22919 L167.905704,5468.79698 C167.905704,5464.90201 171.929017,5462.30256 175.481226,5463.90303 L213.716369,5481.12544 Z M-224.902557,5454.97951 L-268.202069,5474.4859 C-269.695301,5475.1589 -271.405156,5475.1589 -272.898388,5474.4859 L-316.1979,5454.97951 C-320.688111,5452.95631 -320.688111,5446.57966 -316.1979,5444.55647 L-272.898388,5425.05007 C-271.405156,5424.37917 -269.695301,5424.37917 -268.202069,5425.05007 L-224.902557,5444.55647 C-220.410243,5446.57966 -220.410243,5452.95631 -224.902557,5454.97951 L-224.902557,5454.97951 Z M229.370064,5564.35624 L173.929106,5539.38174 C170.265431,5537.7308 167.905704,5534.0861 167.905704,5530.06705 L167.905704,5520.81123 C167.905704,5517.32637 169.952062,5514.16539 173.129912,5512.73317 L226.379394,5488.74713 C226.370982,5490.25296 226.358363,5492.19204 226.343641,5494.48653 C226.32261,5497.18693 226.299475,5500.33951 226.274237,5503.71501 C226.246896,5507.09261 226.09547,5510.69314 226.179596,5514.29578 C226.253206,5517.89631 226.562368,5521.49895 226.768476,5524.87445 C226.957759,5528.25206 227.262715,5531.40252 227.508782,5534.10292 C227.727509,5536.80543 228.019846,5539.05576 228.190201,5540.631 C228.392102,5542.20833 228.505672,5543.10847 228.505672,5543.10847 C228.505672,5543.10847 228.619242,5542.20833 228.821144,5540.631 C228.991498,5539.05576 229.283835,5536.80543 229.502562,5534.10292 C229.74863,5531.40252 230.053586,5528.25206 230.242868,5524.87445 C230.448976,5521.49895 230.758139,5517.89631 230.831749,5514.29578 C230.915874,5510.69314 230.764448,5507.09261 230.737107,5503.71501 C230.711869,5500.33951 230.882224,5497.18693 230.861193,5494.48653 C230.827542,5489.09625 231,5485.49992 231,5485.4852 L231,5485.4831 C231,5485.22021 230.741313,5484.97204 230.648775,5484.73439 C230.629847,5484.68602 230.509968,5484.64395 230.488936,5484.59768 C230.394295,5484.39789 230.22394,5484.21702 230.072514,5484.05718 C230.053586,5484.03615 230.013626,5484.01512 229.994698,5483.99409 C229.820137,5483.82163 229.609822,5483.67021 229.378477,5483.56505 L167.905704,5455.87964 L167.905704,5433.89788 C167.905704,5433.6413 167.846816,5433.39733 167.760587,5433.16599 C167.73535,5433.09869 167.705906,5433.0377 167.674358,5432.9725 C167.592336,5432.80846 167.491385,5432.65914 167.369403,5432.52033 C167.325237,5432.47196 167.291586,5432.41939 167.245317,5432.37522 C167.077066,5432.21749 166.889886,5432.45934 166.673262,5432.3605 L166.629096,5432.72223 L166.25684,5432.72223 L104.811408,5404.45636 L104.811408,5301.18497 C104.811408,5300.35634 104.708354,5299.60553 103.953326,5299.26693 L41.8075475,5271.18613 C41.2586272,5270.93796 40.7244288,5270.93796 40.1755084,5271.18613 L-22.1132836,5299.26693 C-22.3467325,5299.37208 -22.5191903,5299.52771 -22.6958543,5299.70227 C-22.7463297,5299.75275 -22.7757737,5299.80532 -22.8220429,5299.86211 C-22.9398189,5300.00512 -23.0281509,5300.16075 -23.1059672,5300.329 C-23.1312049,5300.38789 -23.1606489,5300.43836 -23.1816804,5300.49935 C-23.2573935,5300.71597 -23.3057658,5300.94521 -23.3057658,5301.18286 C-23.3057658,5301.19338 -23.3015595,5301.20179 -23.3015595,5301.2102 C-23.3015595,5301.24806 -23.2868375,5301.28171 -23.2847344,5301.31957 C-23.2700124,5301.54039 -23.2195369,5301.7486 -23.1417206,5301.9505 C-23.1291018,5301.98205 -23.1333081,5302.0157 -23.1185861,5302.04724 C-23.1038641,5302.083 -23.0723169,5302.10193 -23.0554918,5302.13558 C-23.0344603,5302.17764 -23.1080703,5302.2218 -23.0849358,5302.26176 C-23.2637029,5302.57092 -23.4803267,5302.90742 -23.4803267,5303.29019 L-23.4803267,5353.77548 L-82.7700365,5327.02805 C-83.3189569,5326.77778 -83.9057339,5326.68735 -84.4525511,5326.93762 L-146.720312,5354.90695 L-146.711899,5354.90695 L-146.751859,5355.01842 C-146.970586,5355.11516 -147.153559,5355.30024 -147.321811,5355.46007 C-147.36808,5355.50424 -147.40173,5355.57785 -147.445896,5355.62622 C-147.567878,5355.76503 -147.668829,5355.92486 -147.750852,5356.09101 C-147.782399,5356.1562 -147.603632,5356.2214 -147.62887,5356.2887 C-147.717202,5356.52004 -147.565775,5356.77031 -147.565775,5357.02689 L-147.565775,5404.64143 L-208.815615,5432.72223 L-208.929184,5432.72223 L-209.028032,5432.45303 C-209.244656,5432.55188 -209.459176,5432.54768 -209.627428,5432.70541 C-209.673697,5432.74957 -209.724172,5432.72854 -209.766235,5432.77691 C-209.888218,5432.91572 -209.997581,5433.02929 -210.079604,5433.19333 C-210.111151,5433.25853 -210.315156,5433.30059 -210.340393,5433.36789 C-210.426622,5433.60134 -210.660071,5433.82637 -210.660071,5434.08295 L-210.660071,5437.34699 C-210.660071,5441.64786 -214.929452,5444.5144 -218.847608,5442.74779 L-269.771014,5419.76914 C-270.317831,5419.52098 -270.906711,5419.52098 -271.455631,5419.76914 L-333.771764,5447.85205 C-334.526793,5448.19065 -335,5448.94146 -335,5449.76799 C-335,5450.59661 -334.509968,5451.34532 -333.754939,5451.68603 L-277.960653,5476.82036 C-274.734432,5478.27362 -272.658629,5481.48297 -272.662836,5485.02251 C-272.675455,5494.68002 -272.696486,5512.77102 -272.719621,5530.87044 C-272.736446,5534.18495 -272.753271,5537.49735 -272.767993,5540.75929 C-272.812159,5544.02122 -272.852119,5547.23268 -272.892078,5550.33898 C-272.98041,5556.55158 -272.635495,5562.34987 -272.31792,5567.31953 C-271.987727,5572.2913 -271.558685,5576.43233 -271.184326,5579.33253 C-270.828895,5582.23273 -270.549177,5583.88998 -270.549177,5583.88998 C-270.549177,5583.88998 -270.269459,5582.23273 -269.914028,5579.33253 C-269.541771,5576.43233 -269.11273,5572.2913 -268.782536,5567.31953 C-268.462859,5562.34987 -268.117943,5556.55158 -268.208378,5550.33898 C-268.248338,5547.23268 -268.288298,5544.02122 -268.330361,5540.75929 C-268.347186,5537.49735 -268.364011,5534.18495 -268.380836,5530.87044 C-268.401868,5512.77102 -268.425002,5494.68002 -268.437621,5485.02041 C-268.441827,5481.48297 -266.376541,5478.27782 -263.150319,5476.82457 C-252.178221,5471.88014 -227.224427,5460.56328 -216.039911,5455.52421 C-213.434117,5454.35068 -210.660071,5456.2582 -210.660071,5459.11634 L-210.660071,5462.21212 L-210.660071,5462.24367 L-210.660071,5602.39319 C-210.660071,5602.3974 -210.48551,5602.40161 -210.48551,5602.40581 C-210.48551,5602.4647 -210.405591,5606.02948 -210.414003,5611.37139 C-210.420313,5614.06338 -210.386663,5617.20754 -210.397178,5620.57252 C-210.424519,5622.25712 -210.430829,5623.9964 -210.462376,5625.76301 C-210.489717,5627.53173 -210.453963,5629.32569 -210.371941,5631.12175 C-210.188967,5634.71387 -209.938693,5638.30389 -209.740998,5641.67098 C-209.553818,5645.03807 -209.250965,5648.18012 -209.059579,5650.87211 C-208.620022,5656.25819 -208.212012,5659.85031 -208.212012,5659.85031 C-208.212012,5659.85031 -207.806106,5656.25819 -207.366549,5650.87211 C-207.175163,5648.18012 -206.874413,5645.03807 -206.687234,5641.67098 C-206.489538,5638.30389 -206.24347,5634.71387 -206.060497,5631.12175 C-205.980578,5629.32569 -205.953237,5627.53173 -205.982681,5625.76301 C-206.012125,5623.9964 -206.220336,5622.25712 -206.247677,5620.57252 C-206.258192,5617.20754 -206.453785,5614.06338 -206.453785,5611.37139 L-206.453785,5611.30199 C-206.453785,5608.65207 -203.545138,5606.88334 -201.128626,5607.97066 L-146.827572,5632.39414 C-146.554163,5632.51822 -146.213454,5632.57921 -145.919014,5632.57921 C-145.624574,5632.57921 -145.306999,5632.51822 -145.033591,5632.39414 L-91.3235199,5607.99379 C-88.8838738,5606.89386 -86.5746226,5608.6773 -86.5746226,5611.35457 L-86.5746226,5619.89953 L-86.1014153,5619.89953 C-86.1014153,5619.89953 -85.8658633,5623.33812 -85.8511413,5629.07963 C-85.8364193,5631.95038 -85.7607062,5635.10295 -85.8132847,5638.69087 C-85.8742759,5642.27878 -85.876379,5646.00971 -85.7354684,5649.83738 C-85.6387238,5653.66295 -85.3989655,5657.44225 -85.1928575,5661.03016 C-85.0035746,5664.61808 -84.6923094,5667.9431 -84.4840982,5670.81175 C-84.0361287,5676.55326 -83.5524058,5680.36831 -83.5524058,5680.36831 C-83.5524058,5680.36831 -83.0749923,5676.53433 -82.6249196,5670.79493 C-82.4188116,5667.92417 -82.1180621,5664.57181 -81.9308824,5660.98389 C-81.7226712,5657.39598 -81.5102538,5653.56831 -81.4135092,5649.74064 C-81.2747017,5645.91507 -81.3314866,5642.0874 -81.3924777,5638.49948 C-81.4450563,5634.91157 -81.4808097,5631.94828 -81.4681909,5629.07963 C-81.4534689,5623.34443 -81.895129,5619.89953 -81.895129,5619.89953 L-82.3683362,5619.89953 L-82.3683362,5602.44998 C-82.3683362,5602.43105 -82.3599236,5602.41212 -82.3599236,5602.39319 C-82.3599236,5602.37426 -82.3683362,5602.35744 -82.3683362,5602.33641 L-82.3683362,5580.49766 C-82.3683362,5575.66049 -79.0685045,5571.27129 -74.6561101,5569.28174 L-28.7381847,5548.66069 C-26.3384983,5547.58179 -23.4803267,5549.33579 -23.4803267,5551.96679 L-23.4803267,5579.94033 L-23.3793758,5579.94033 C-23.3793758,5579.94033 -23.3120752,5611.3777 -23.2805281,5642.47227 C-23.2889407,5646.36093 -23.2784249,5650.40312 -23.2847344,5654.23079 C-23.322591,5658.05846 -23.3499318,5661.90295 -23.3835821,5665.54976 C-23.3583444,5669.19446 -23.2931469,5672.75713 -23.1122766,5676.10109 C-22.956644,5679.44294 -22.8052177,5682.62075 -22.6685134,5685.53777 C-22.5318091,5688.45479 -22.3088759,5691.13836 -22.1616559,5693.50858 C-22.0144359,5695.87879 -21.8567001,5697.95036 -21.6968613,5699.65178 C-21.4192464,5703.05251 -21.2005195,5705 -21.2005195,5705 C-21.2005195,5705 -20.9838957,5703.05672 -20.7062808,5699.65388 C-20.5464419,5697.95246 -20.3887062,5695.8872 -20.2414862,5693.51699 C-20.0942661,5691.14678 -19.8734361,5688.47372 -19.7367318,5685.5567 C-19.6000275,5682.63967 -19.4507043,5679.48079 -19.2929686,5676.13894 C-19.1142014,5672.79499 -19.0532103,5669.27017 -19.0279725,5665.62547 C-19.0616228,5661.97867 -19.0994794,5658.21199 -19.1352329,5654.38221 C-19.1436454,5650.55454 -19.152058,5646.66588 -19.1604706,5642.77722 C-19.152058,5634.99149 -19.1436454,5627.20575 -19.137336,5619.91004 C-19.1331297,5617.62606 -16.7776093,5616.10971 -14.6933944,5617.0477 L34.3687301,5639.14935 C37.422494,5640.52478 39.3805203,5643.56589 39.3721077,5646.91615 L39.3679014,5647.8289 C39.361592,5650.16336 39.3531794,5652.88269 39.3426637,5655.79971 C39.3279417,5658.71463 39.3510763,5661.82514 39.2543317,5664.93565 C39.2248877,5666.49195 39.3889329,5668.04615 39.5151215,5669.57722 C39.6434132,5671.10829 39.7696018,5672.61412 39.8936872,5674.07368 C40.1208267,5676.9886 40.4089573,5679.71003 40.6339936,5682.04449 C41.1050977,5686.7092 41.4962823,5689.81971 41.4962823,5689.81971 C41.4962823,5689.81971 41.887467,5686.7092 42.3564679,5682.04449 C42.5815042,5679.71003 42.871738,5676.9886 43.0967743,5674.07368 C43.2208598,5672.61412 43.3470484,5671.10829 43.4753401,5669.57722 C43.6015287,5668.04615 43.7655738,5666.49195 43.7361298,5664.93565 C43.6393853,5661.82514 43.6625198,5658.71463 43.6477978,5655.79971 C43.6372821,5652.88269 43.6288695,5650.16336 43.6225601,5647.8289 L43.620457,5646.89933 C43.6099413,5643.55327 45.559555,5640.51427 48.6028032,5639.12831 L96.935137,5617.13183 C99.006733,5616.18963 101.362253,5617.68915 101.362253,5619.96683 C101.36015,5626.51803 101.358047,5633.74644 101.355944,5640.97695 C101.3265,5643.92762 101.294953,5646.87619 101.265509,5649.77849 C101.309675,5652.68079 101.450585,5655.53893 101.597805,5658.30242 C101.877523,5663.83361 102.113076,5668.99256 102.415928,5673.41751 C102.929095,5682.26322 103.471706,5688.16035 103.471706,5688.16035 C103.471706,5688.16035 104.012214,5682.26322 104.525381,5673.41751 C104.830337,5668.99256 105.063785,5663.83361 105.343503,5658.30242 C105.490724,5655.53893 105.631634,5652.68079 105.6758,5649.77849 C105.646356,5646.87619 105.616912,5644.36087 105.585365,5641.4123 C105.579056,5617.82165 105.204696,5594.66214 105.204696,5594.66214 L104.811408,5594.66214 L104.811408,5576.64264 C104.811408,5573.22718 108.714842,5570.94951 111.827494,5572.35229 L158.595089,5593.33507 C161.728773,5594.74626 163.804575,5597.90094 163.724655,5601.33953 C163.709933,5602.0609 163.743584,5602.75703 163.739377,5603.35642 C163.735171,5606.05682 163.751996,5609.20729 163.745687,5612.58279 C163.783543,5615.95829 163.873979,5619.55882 163.998064,5623.15936 C164.233616,5630.36043 164.675276,5637.56149 165.165309,5642.96229 C165.384035,5645.66269 165.688991,5647.91303 165.846727,5649.48826 C166.025494,5651.0635 166.168508,5651.96363 166.168508,5651.96363 C166.168508,5651.96363 166.309418,5651.0635 166.486082,5649.48826 C166.645921,5647.91303 166.948774,5645.66269 167.167501,5642.96229 C167.657533,5637.56149 168.092884,5630.36043 168.326333,5623.15936 C168.452521,5619.55882 168.530338,5615.95829 168.568194,5612.58279 C168.561885,5609.20729 168.555575,5606.05682 168.549266,5603.35642 C168.54506,5602.75703 168.534544,5602.0609 168.517719,5601.33953 C168.437799,5597.90094 170.41896,5594.74626 173.552644,5593.33507 L229.370064,5568.19022 C230.125092,5567.84952 230.608815,5567.10081 230.608815,5566.27218 C230.608815,5565.44566 230.125092,5564.69484 229.370064,5564.35624 L229.370064,5564.35624 Z" id="Page-1"></path>
        </g>
    </g>
</svg>