<?xml version="1.0" encoding="UTF-8" standalone="no"?>
<svg width="60px" height="55px" viewBox="0 0 60 55" version="1.1" xmlns="http://www.w3.org/2000/svg" xmlns:xlink="http://www.w3.org/1999/xlink">
    <!-- Generator: sketchtool 46.2 (44496) - http://www.bohemiancoding.com/sketch -->
    <title>12F53E59-390B-4114-8605-81EDE9F130B5</title>
    <desc>Created with sketchtool.</desc>
    <defs></defs>
    <g id="Page-1" stroke="none" stroke-width="1" fill="none" fill-rule="evenodd">
        <g id="Venture-exchange" transform="translate(-546.000000, -5534.000000)" fill="#76D0D3">
            <g id="coding" transform="translate(546.000000, 5534.000000)">
                <path d="M15.9091662,17.1196207 C15.7269261,16.8091394 15.331177,16.7072832 15.0251511,16.8923274 L7.51472959,21.4369916 C7.31959509,21.5551142 7.2,21.7691978 7.2,21.9998754 C7.2,22.2305529 7.31959509,22.4446365 7.51472959,22.5627591 L15.0251511,27.1074233 C15.1284133,27.1700872 15.242206,27.2 15.3546017,27.2 C15.574128,27.2 15.7882817,27.0856984 15.9087364,26.8801301 C16.0912989,26.5692121 15.9909379,26.1671367 15.6850194,25.9820925 L9.10428056,21.9998754 L15.6850194,18.0176583 C15.9909379,17.8326141 16.0912989,17.4305387 15.9091662,17.1196207 Z" id="Fill-1" stroke="#76D0D3" stroke-width="0.56"></path>
                <path d="M24.4358761,17.0899069 L18.5081218,26.179493 C18.3123145,26.4797064 18.3897045,26.887014 18.6816662,27.0886481 C18.7906482,27.1637561 18.9136241,27.2 19.0357518,27.2 C19.2403582,27.2 19.4415721,27.0980366 19.5641239,26.9100485 L25.4918782,17.8204624 C25.6876855,17.520249 25.6102955,17.1129414 25.3183338,16.9113073 C25.0267962,16.7095639 24.6316833,16.7896936 24.4358761,17.0899069 Z" id="Fill-3" stroke="#76D0D3" stroke-width="0.56"></path>
                <path d="M28.0911402,26.8801301 C28.2115967,27.0856984 28.4257534,27.2 28.6452828,27.2 C28.7576801,27.2 28.8714744,27.1700872 28.9747381,27.1074233 L36.485266,22.5627591 C36.6804032,22.4441998 36.8,22.2305529 36.8,21.9998754 C36.8,21.7691978 36.6804032,21.5551142 36.485266,21.4369916 L28.9747381,16.8923274 C28.6687078,16.7072832 28.2729531,16.8091394 28.0911402,17.1196207 C27.9085751,17.4305387 28.0089376,17.8326141 28.3148604,18.0176583 L34.8956925,21.9998754 L28.3148604,25.9820925 C28.0089376,26.1671367 27.9085751,26.5692121 28.0911402,26.8801301 Z" id="Fill-2" stroke="#76D0D3" stroke-width="0.56"></path>
                <text id="2.0" font-family="CircularStd-Book, Circular Std" font-size="18.4" font-weight="300">
                    <tspan x="27.2" y="45.2">2.0</tspan>
                </text>
                <g id="Group-6">
                    <path d="M59.0425532,0 L0.957446809,0 C0.42893617,0 0,0.43008 0,0.96 L0,53.44 C0,53.96992 0.42893617,54.4 0.957446809,54.4 L59.0425532,54.4 C59.5710638,54.4 60,53.96992 60,53.44 L60,43.2 C60,42.67008 59.5710638,42.24 59.0425532,42.24 C58.5140426,42.24 58.0851064,42.67008 58.0851064,43.2 L58.0851064,52.48 L1.91489362,52.48 L1.91489362,9.6 L58.0851064,9.6 L58.0851064,39.36 C58.0851064,39.88992 58.5140426,40.32 59.0425532,40.32 C59.5710638,40.32 60,39.88992 60,39.36 L60,0.96 C60,0.43008 59.5710638,0 59.0425532,0 Z M1.91489362,7.68 L37.3404255,7.68 L37.3404255,1.92 L1.91489362,1.92 L1.91489362,7.68 Z M39.2553191,7.68 L58.0851064,7.68 L58.0851064,1.92 L39.2553191,1.92 L39.2553191,7.68 Z" id="Fill-5"></path>
                </g>
                <path d="M48.7019681,3.77632 C48.1391489,3.77632 47.6810106,4.23568 47.6810106,4.8 C47.6810106,5.36432 48.1391489,5.82368 48.7019681,5.82368 C49.2654255,5.82368 49.7237234,5.36432 49.7237234,4.8 C49.7237234,4.23568 49.2654255,3.77632 48.7019681,3.77632 Z" id="Fill-7"></path>
                <path d="M43.467766,3.77632 C42.9049468,3.77632 42.4468085,4.23568 42.4468085,4.8 C42.4468085,5.36432 42.9049468,5.82368 43.467766,5.82368 C44.031383,5.82368 44.4895213,5.36432 44.4895213,4.8 C44.4895213,4.23568 44.031383,3.77632 43.467766,3.77632 Z" id="Fill-8"></path>
                <path d="M53.9361702,3.77632 C53.3733511,3.77632 52.9152128,4.23568 52.9152128,4.8 C52.9152128,5.36432 53.3733511,5.82368 53.9361702,5.82368 C54.4989894,5.82368 54.9571277,5.36432 54.9571277,4.8 C54.9571277,4.23568 54.4989894,3.77632 53.9361702,3.77632 Z" id="Fill-9"></path>
            </g>
        </g>
    </g>
</svg>