<?xml version="1.0" encoding="UTF-8" standalone="no"?>
<svg width="20px" height="21px" viewBox="0 0 20 21" version="1.1" xmlns="http://www.w3.org/2000/svg" xmlns:xlink="http://www.w3.org/1999/xlink">
    <!-- Generator: sketchtool 46.2 (44496) - http://www.bohemiancoding.com/sketch -->
    <title>8BDA4C8B-97FF-4F96-9DBD-9ADF324FBCA6</title>
    <desc>Created with sketchtool.</desc>
    <defs></defs>
    <g id="Page-1" stroke="none" stroke-width="1" fill="none" fill-rule="evenodd">
        <g id="New-site-popup" transform="translate(-910.000000, -212.000000)" fill="#5A7775">
            <path d="M920,223.127441 L911.92583,231.201611 L910.872559,232.348182 L910,231.475623 L911.053272,230.329052 L919.254883,222.127441 L919.07417,221.946728 L910.436279,213.308838 L910,212.872559 L910.872559,212 L911.308838,212.436279 L919.946728,221.07417 L920,221.127441 L920.053272,221.07417 L928.691162,212.436279 L929.127441,212 L930,212.872559 L929.563721,213.308838 L920.92583,221.946728 L920.745117,222.127441 L928.946728,230.329052 L930,231.475623 L929.127441,232.348182 L928.07417,231.201611 L920,223.127441 Z" id="Combined-Shape"></path>
        </g>
    </g>
</svg>