<svg xmlns="http://www.w3.org/2000/svg" width="47" height="47" viewBox="0 0 47 47">
    <g fill="none" fill-rule="evenodd" transform="translate(1 1)">
        <circle cx="22.5" cy="22.5" r="22.5" stroke="#FFF" stroke-width="2"/>
        <path fill="#FFF" d="M31.667 30.119a.558.558 0 0 1-.568.548h-2.822a.558.558 0 0 1-.568-.548v-4.986c0-.744.227-3.26-2.015-3.26-1.74 0-2.092 1.722-2.163 2.495v5.75a.558.558 0 0 1-.568.549h-2.728a.558.558 0 0 1-.568-.548V19.393c0-.303.254-.548.568-.548h2.728c.314 0 .568.245.568.548v.927c.645-.933 1.603-1.653 3.644-1.653 4.518 0 4.492 4.07 4.492 6.307v5.145zM16.333 17.333a2 2 0 1 1 0-4 2 2 0 0 1 0 4zm2 12.729c0 .334-.286.605-.639.605h-2.721c-.353 0-.64-.271-.64-.605v-10.79c0-.335.287-.605.64-.605h2.721c.353 0 .64.27.64.604v10.791zM31.191 12H14.809C13.81 12 13 12.81 13 13.81v16.38c0 1 .81 1.81 1.81 1.81h16.38c1 0 1.81-.81 1.81-1.81V13.81c0-1-.81-1.81-1.81-1.81z"/>
    </g>
</svg>
