<?xml version="1.0" encoding="UTF-8" standalone="no"?>
<svg width="47px" height="47px" viewBox="0 0 47 47" version="1.1" xmlns="http://www.w3.org/2000/svg" xmlns:xlink="http://www.w3.org/1999/xlink">
    <!-- Generator: sketchtool 46.2 (44496) - http://www.bohemiancoding.com/sketch -->
    <title>49984900-2E0C-4C0D-8B2A-B418D2B1BAA4</title>
    <desc>Created with sketchtool.</desc>
    <defs></defs>
    <g id="Page-1" stroke="none" stroke-width="1" fill="none" fill-rule="evenodd">
        <g id="Venture-exchange" transform="translate(-147.000000, -697.000000)">
            <g id="Group-12" transform="translate(148.000000, 698.000000)">
                <circle id="Oval-2" stroke="#FFFFFF" stroke-width="2" cx="22.5" cy="22.5" r="22.5"></circle>
                <path d="M13.3178664,22.6718608 L17.4654354,24.2523273 L19.070883,29.5230501 C19.1734079,29.8607206 19.5780323,29.9854519 19.8463819,29.7614102 L22.1581786,27.8373008 C22.4005032,27.6356939 22.7455777,27.6255868 22.9990024,27.8134112 L27.1688463,30.9042833 C27.4559459,31.1172224 27.8625953,30.9566567 27.9346702,30.6025238 L30.9894158,15.6014537 C31.0679407,15.2147788 30.6955662,14.891733 30.3346668,15.0343816 L13.3132164,21.7380984 C12.893067,21.9034881 12.896592,22.5106825 13.3178664,22.6718608 Z M18.8122084,23.410984 L26.9180467,18.3139969 C27.0636965,18.2228029 27.2136963,18.4237973 27.0885965,18.5422499 L20.3986061,24.890915 C20.1637065,25.1143442 20.0119067,25.4134238 19.9688567,25.7379244 L19.7412321,27.4619582 C19.7110071,27.6922786 19.3943576,27.7150197 19.3319577,27.4924328 L18.4556589,24.3483451 C18.3551591,23.9896946 18.5014089,23.6068482 18.8122084,23.410984 Z" id="Fill-1" fill="#FFFFFF"></path>
            </g>
        </g>
    </g>
</svg>