<?xml version="1.0" encoding="UTF-8" standalone="no"?>
<svg width="47px" height="47px" viewBox="0 0 47 47" version="1.1" xmlns="http://www.w3.org/2000/svg" xmlns:xlink="http://www.w3.org/1999/xlink">
    <!-- Generator: sketchtool 46.2 (44496) - http://www.bohemiancoding.com/sketch -->
    <title>F85529DB-F45B-4028-92C9-A8B5AA73CE4E</title>
    <desc>Created with sketchtool.</desc>
    <defs></defs>
    <g id="Page-1" stroke="none" stroke-width="1" fill="none" fill-rule="evenodd">
        <g id="Venture-exchange" transform="translate(-92.000000, -697.000000)">
            <g id="Group-7" transform="translate(93.000000, 698.000000)">
                <circle id="Oval-2" stroke="#FFFFFF" stroke-width="2" cx="22.5" cy="22.5" r="22.5"></circle>
                <path d="M32.4759565,15.2957931 C31.722105,15.7581942 30.8891144,16.0944859 29.9987985,16.2744225 C29.2895896,15.4900836 28.2759993,15 27.1538462,15 C25.0028836,15 23.2572558,16.8085931 23.2572558,19.0390888 C23.2572558,19.3559002 23.2907377,19.6629714 23.3577017,19.9587645 C20.118068,19.7901061 17.2462286,18.1840056 15.3225376,15.737176 C14.9867033,16.3359393 14.794943,17.0305661 14.794943,17.7703053 C14.794943,19.1708372 15.4828452,20.4073243 16.5294102,21.1316843 C15.8912237,21.112204 15.2890556,20.928679 14.7624756,20.6282721 L14.7624756,20.6774855 C14.7624756,22.6352568 16.1063199,24.2685271 17.8910101,24.6381404 C17.5643073,24.7329788 17.2193416,24.7806543 16.8637225,24.7806543 C16.6126078,24.7806543 16.3675807,24.7560475 16.1301631,24.7088847 C16.626305,26.3129345 18.0650148,27.4812406 19.7710731,27.5125116 C18.4373748,28.5962321 16.7556671,29.2421582 14.9298855,29.2421582 C14.6153579,29.2421582 14.3043815,29.2237032 14,29.1867931 C15.7248285,30.3310051 17.7748378,31 19.975516,31 C27.1462366,31 31.0661629,24.8462721 31.0661629,19.5081542 C31.0661629,19.3323187 31.0631191,19.1569959 31.0565242,18.984749 C31.8179852,18.4152062 32.4795076,17.7041748 33,16.894204 C32.3019518,17.2151165 31.5501295,17.4324757 30.7617814,17.5298773 C31.5668705,17.0305661 32.1847649,16.2390503 32.4759565,15.2957931" id="Twitter" fill="#FFFFFF"></path>
            </g>
        </g>
    </g>
</svg>